M45-retail-pkc
…
       .

task1 <- m6 %>%
  select(year, month, Sales, DiscountAmount) %>% 
  group_by(year, month) %>% 
  summarise(TotSales = sum(Sales),
            TotDiscounts = sum(DiscountAmount))
print(task1)

## # A tibble: 48 x 4
## # Groups:   year [?]
##    year  month TotSales TotDiscounts
##    <chr> <chr>    <dbl>        <dbl>
##  1 2011  01       13947         654.
##  2 2011  02        4809         235.
##  3 2011  03       55689       16954.
##  4 2011  04       28294        3039.
##  5 2011  05       23648        4233.
##  6 2011  06       34598        4447.
##  7 2011  07       33948        5311.
##  8 2011  08       27908        3413.
##  9 2011  09       81787       14023.
## 10 2011  10       31448        4031.
## # ... with 38 more rows
…
    regular season promotion season       . black friday, x-mas, new year    ,  4Q      .

              .     ,         ,           .

    .                        .   Technology            .

Sim:            .             .  Category         .         .

       ,   1)   2)      .

task1    .     ,    ,     .

print(task1)

## # A tibble: 48 x 4
## # Groups:   year [4]
##    year  month TotSales TotDiscounts
##    <chr> <chr>    <dbl>        <dbl>
##  1 2011  01       13947         654.
##  2 2011  02        4809         235.
##  3 2011  03       55689       16954.
##  4 2011  04       28294        3039.
##  5 2011  05       23648        4233.
##  6 2011  06       34598        4447.
##  7 2011  07       33948        5311.
##  8 2011  08       27908        3413.
##  9 2011  09       81787       14023.
## 10 2011  10       31448        4031.
## # ... with 38 more rows
…
  gather       ,      .

task1_c <- task1_b %>% 
  gather(colnames(task1_b)[-1],
         key = "year",
         value = "Sales_growth")
print(task1_c)

## # A tibble: 36 x 3
##    month year  Sales_growth
##    <chr> <chr>        <dbl>
##  1 01    2012          4225
##  2 02    2012          7405
##  3 03    2012        -17217
##  4 04    2012          5904
##  5 05    2012          6489
##  6 06    2012         -9798
##  7 07    2012         -5183
##  8 08    2012          8991
##  9 09    2012        -17186
## 10 10    2012           -42
## # ... with 26 more rows
…
  spread(key= "year", value= "DCRate") %>% 
  rename(raw_2011 = '2011',
         raw_2012 = '2012',
         raw_2013 = '2013',
         raw_2014 = '2014') %>% 
  mutate( '2012' = raw_2012 - raw_2011,
          '2013' = raw_2013 - raw_2012,
          '2014' = raw_2014 - raw_2013) %>% 
  select(month, '2012', '2013', '2014') %>% 
  gather(colnames(task1_b)[-1],
         key = "year",
         value = "DCRate_growth")
print(task1_d)

## # A tibble: 36 x 3
##    month year  DCRate_growth
##    <chr> <chr>         <dbl>
##  1 01    2012          25.3 
##  2 02    2012           2.27
##  3 03    2012         -22.2 
##  4 04    2012           2.12
##  5 05    2012          -4.35
##  6 06    2012           3.09
##  7 07    2012          -2.46
##  8 08    2012           1.49
##  9 09    2012          -5.26
## 10 10    2012           2.35
## # ... with 26 more rows

task1_e <- inner_join(task1_c, task1_d, by= c("year", "month"))
print(task1_e)

## # A tibble: 36 x 4
##    month year  Sales_growth DCRate_growth
##    <chr> <chr>        <dbl>         <dbl>
##  1 01    2012          4225         25.3 
##  2 02    2012          7405          2.27
##  3 03    2012        -17217        -22.2 
##  4 04    2012          5904          2.12
##  5 05    2012          6489         -4.35
##  6 06    2012         -9798          3.09
##  7 07    2012         -5183         -2.46
##  8 08    2012          8991          1.49
##  9 09    2012        -17186         -5.26
## 10 10    2012           -42          2.35
## # ... with 26 more rows
…
State     Sub-Catogory , Product Name      , .

task1_a %>% 
  filter(n == max(n)) %>% 
  arrange(Country, Region, State, -n)

## # A tibble: 58 x 5
## # Groups:   Country, Region, State [49]
##    Country    Region  State   `Product Name`                             n
##    <chr>      <chr>   <chr>   <chr>                                  <dbl>
##  1 United St~ Central Illino~ Staples in misc. colors                   16
##  2 United St~ Central Indiana Belkin F9H710-06 7 Outlet SurgeMaster~    13
##  3 United St~ Central Iowa    Hon Olson Stacker Stools                  10
##  4 United St~ Central Kansas  Binney & Smith Crayola Metallic Color~     6
##  5 United St~ Central Kansas  "Executive Impressions 10\" Spectator~     6
##  6 United St~ Central Michig~ Avery Heavy-Duty EZD View Binder with~    15
##  7 United St~ Central Minnes~ Adams Telephone Message Book w/Freque~    11
##  8 United St~ Central Missou~ Black & Decker Filter for Double Acti~    10
##  9 United St~ Central Nebras~ Electrix Architect's Clamp-On Swing A~    14
## 10 United St~ Central North ~ Binney & Smith inkTank Desk Highlight~    10
## # ... with 48 more rows

Product Name    State        , tie   .       (4  10 )  Sub-Category     .

Sim: .   Product Name      Category Sub-Category  . 

task1_b %>% 
  filter(n == max(n)) %>% 
  arrange(Country, Region, State, -n)

## # A tibble: 51 x 5
## # Groups:   Country, Region, State [49]
##    Country       Region  State        `Sub-Category`     n
##    <chr>         <chr>   <chr>        <chr>          <dbl>
##  1 United States Central Illinois     Binders          327
##  2 United States Central Indiana      Paper            100
##  3 United States Central Iowa         Binders           34
##  4 United States Central Kansas       Art               14
##  5 United States Central Michigan     Binders          192
##  6 United States Central Minnesota    Binders           55
##  7 United States Central Missouri     Paper             42
##  8 United States Central Nebraska     Paper             21
##  9 United States Central North Dakota Art               18
## 10 United States Central Oklahoma     Binders           42
## # ... with 41 more rows
…
